%YAML 1.1
%TAG !u! tag:unity3d.com,2011:
--- !u!74 &7400000
AnimationClip:
  m_ObjectHideFlags: 0
  m_CorrespondingSourceObject: {fileID: 0}
  m_PrefabInstance: {fileID: 0}
  m_PrefabAsset: {fileID: 0}
  m_Name: Boom_Stay
  serializedVersion: 6
  m_Legacy: 0
  m_Compressed: 0
  m_UseHighQualityCurve: 1
  m_RotationCurves: []
  m_CompressedRotationCurves: []
  m_EulerCurves: []
  m_PositionCurves: []
  m_ScaleCurves: []
  m_FloatCurves: []
  m_PPtrCurves:
  - curve:
    - time: 0
      value: {fileID: -2531241511545790211, guid: 4ef19647b9902e74695732dee96da16b, type: 3}
    - time: 0.083333336
      value: {fileID: -3475447687785860090, guid: 4ef19647b9902e74695732dee96da16b, type: 3}
    - time: 0.16666667
      value: {fileID: -4007361651202871866, guid: 4ef19647b9902e74695732dee96da16b, type: 3}
    - time: 0.25
      value: {fileID: 6807419663271323924, guid: 4ef19647b9902e74695732dee96da16b, type: 3}
    - time: 0.33333334
      value: {fileID: -5780676575605706383, guid: 4ef19647b9902e74695732dee96da16b, type: 3}
    - time: 0.41666666
      value: {fileID: -6166630396548494921, guid: 4ef19647b9902e74695732dee96da16b, type: 3}
    - time: 0.5
      value: {fileID: -2369763285953619939, guid: 4ef19647b9902e74695732dee96da16b, type: 3}
    - time: 0.5833333
      value: {fileID: 2975479646570862724, guid: 4ef19647b9902e74695732dee96da16b, type: 3}
    - time: 0.6666667
      value: {fileID: 1578917271271971629, guid: 4ef19647b9902e74695732dee96da16b, type: 3}
    - time: 0.75
      value: {fileID: -8570657241408568884, guid: 4ef19647b9902e74695732dee96da16b, type: 3}
    - time: 0.8333333
      value: {fileID: 3675811741454795195, guid: 4ef19647b9902e74695732dee96da16b, type: 3}
    - time: 0.9166667
      value: {fileID: -3250128622972041820, guid: 4ef19647b9902e74695732dee96da16b, type: 3}
    - time: 1
      value: {fileID: 9116767376620458484, guid: 4ef19647b9902e74695732dee96da16b, type: 3}
    - time: 1.0833334
      value: {fileID: 5648535943497364746, guid: 4ef19647b9902e74695732dee96da16b, type: 3}
    - time: 1.1666666
      value: {fileID: 3209711683018440767, guid: 4ef19647b9902e74695732dee96da16b, type: 3}
    - time: 1.25
      value: {fileID: 9093709837653160940, guid: 4ef19647b9902e74695732dee96da16b, type: 3}
    - time: 1.3333334
      value: {fileID: 9046876812518504026, guid: 4ef19647b9902e74695732dee96da16b, type: 3}
    - time: 1.4166666
      value: {fileID: 5006728129378096707, guid: 4ef19647b9902e74695732dee96da16b, type: 3}
    - time: 1.5
      value: {fileID: -817649128502582, guid: 4ef19647b9902e74695732dee96da16b, type: 3}
    attribute: m_Sprite
    path: 
    classID: 212
    script: {fileID: 0}
  m_SampleRate: 12
  m_WrapMode: 0
  m_Bounds:
    m_Center: {x: 0, y: 0, z: 0}
    m_Extent: {x: 0, y: 0, z: 0}
  m_ClipBindingConstant:
    genericBindings:
    - serializedVersion: 2
      path: 0
      attribute: 0
      script: {fileID: 0}
      typeID: 212
      customType: 23
      isPPtrCurve: 1
    pptrCurveMapping:
    - {fileID: -2531241511545790211, guid: 4ef19647b9902e74695732dee96da16b, type: 3}
    - {fileID: -3475447687785860090, guid: 4ef19647b9902e74695732dee96da16b, type: 3}
    - {fileID: -4007361651202871866, guid: 4ef19647b9902e74695732dee96da16b, type: 3}
    - {fileID: 6807419663271323924, guid: 4ef19647b9902e74695732dee96da16b, type: 3}
    - {fileID: -5780676575605706383, guid: 4ef19647b9902e74695732dee96da16b, type: 3}
    - {fileID: -6166630396548494921, guid: 4ef19647b9902e74695732dee96da16b, type: 3}
    - {fileID: -2369763285953619939, guid: 4ef19647b9902e74695732dee96da16b, type: 3}
    - {fileID: 2975479646570862724, guid: 4ef19647b9902e74695732dee96da16b, type: 3}
    - {fileID: 1578917271271971629, guid: 4ef19647b9902e74695732dee96da16b, type: 3}
    - {fileID: -8570657241408568884, guid: 4ef19647b9902e74695732dee96da16b, type: 3}
    - {fileID: 3675811741454795195, guid: 4ef19647b9902e74695732dee96da16b, type: 3}
    - {fileID: -3250128622972041820, guid: 4ef19647b9902e74695732dee96da16b, type: 3}
    - {fileID: 9116767376620458484, guid: 4ef19647b9902e74695732dee96da16b, type: 3}
    - {fileID: 5648535943497364746, guid: 4ef19647b9902e74695732dee96da16b, type: 3}
    - {fileID: 3209711683018440767, guid: 4ef19647b9902e74695732dee96da16b, type: 3}
    - {fileID: 9093709837653160940, guid: 4ef19647b9902e74695732dee96da16b, type: 3}
    - {fileID: 9046876812518504026, guid: 4ef19647b9902e74695732dee96da16b, type: 3}
    - {fileID: 5006728129378096707, guid: 4ef19647b9902e74695732dee96da16b, type: 3}
    - {fileID: -817649128502582, guid: 4ef19647b9902e74695732dee96da16b, type: 3}
  m_AnimationClipSettings:
    serializedVersion: 2
    m_AdditiveReferencePoseClip: {fileID: 0}
    m_AdditiveReferencePoseTime: 0
    m_StartTime: 0
    m_StopTime: 1.5833334
    m_OrientationOffsetY: 0
    m_Level: 0
    m_CycleOffset: 0
    m_HasAdditiveReferencePose: 0
    m_LoopTime: 1
    m_LoopBlend: 0
    m_LoopBlendOrientation: 0
    m_LoopBlendPositionY: 0
    m_LoopBlendPositionXZ: 0
    m_KeepOriginalOrientation: 0
    m_KeepOriginalPositionY: 1
    m_KeepOriginalPositionXZ: 0
    m_HeightFromFeet: 0
    m_Mirror: 0
  m_EditorCurves: []
  m_EulerEditorCurves: []
  m_HasGenericRootTransform: 0
  m_HasMotionFloatCurves: 0
  m_Events: []
